<svg width="24" height="24" viewBox="0 0 24 24" fill="none" xmlns="http://www.w3.org/2000/svg">
<path d="M8.17316 2.7612C9.38642 2.25866 10.6868 2 12 2C17.5 2 22 6.47 22 12C22 14.6522 20.9464 17.1957 19.0711 19.0711C17.1957 20.9464 14.6522 22 12 22C10.6868 22 9.38642 21.7413 8.17316 21.2388C6.95991 20.7362 5.85752 19.9997 4.92893 19.0711C3.05357 17.1957 2 14.6522 2 12C2 9.34783 3.05357 6.8043 4.92893 4.92893C5.85752 4.00035 6.95991 3.26375 8.17316 2.7612Z" fill="black"/>
<path d="M11.6437 19H5.55867C5.39896 19 5.27105 18.9429 5.17494 18.8286C5.07884 18.7143 5.04457 18.5786 5.07214 18.4214L7.50055 4.57857C7.52812 4.42143 7.61001 4.28571 7.74621 4.17143C7.88241 4.05714 8.03037 4 8.19008 4H14.0574C16.1191 4 17.5712 4.37143 18.4136 5.11429C19.2731 5.84286 19.5726 6.95 19.3119 8.43571L19.3006 8.5C19.1929 9.11429 18.9149 9.66429 18.4667 10.15C18.021 10.6214 17.5616 10.9643 17.0885 11.1786C17.6291 11.4071 18.0441 11.8143 18.3334 12.4C18.6396 12.9714 18.7326 13.6 18.6124 14.2857C18.061 17.4286 15.7381 19 11.6437 19Z" fill="white"/>
<path fill-rule="evenodd" clip-rule="evenodd" d="M9.55273 19H11.999C16.0934 19 18.4163 17.4286 18.9676 14.2857C19.0879 13.6 18.9949 12.9714 18.6886 12.4C18.3994 11.8143 17.9844 11.4071 17.4437 11.1786C17.9169 10.9643 18.3763 10.6214 18.822 10.15C19.2702 9.66429 19.5482 9.11429 19.6559 8.5L19.6672 8.43571C19.9278 6.95 19.6284 5.84286 18.7689 5.11429C17.9265 4.37143 16.4744 4 14.4126 4H11.9664C14.0281 4 15.4802 4.37143 16.3226 5.11429C17.1821 5.84286 17.4816 6.95 17.2209 8.43571L17.2096 8.5C17.1019 9.11429 16.8239 9.66429 16.3757 10.15C15.93 10.6214 15.4706 10.9643 14.9975 11.1786C15.5381 11.4071 15.9531 11.8143 16.2424 12.4C16.5486 12.9714 16.6416 13.6 16.5214 14.2857C15.97 17.4286 13.6471 19 9.55273 19Z" fill="#8E4FFF"/>
<path d="M12.5843 18.9233H10.3299L10.5464 17.6894H5.18618L5.5034 15.8811L11.1707 11.0574H13.9641L12.5843 18.9233ZM11.3728 12.9786L7.96603 15.8811H10.8636L11.3728 12.9786Z" fill="#8E4FFF"/>
</svg>
