<svg width="38" height="36" viewBox="0 0 38 36" fill="none" xmlns="http://www.w3.org/2000/svg">
<path d="M16.0169 36H1.41277C1.02947 36 0.72249 35.8629 0.491839 35.5886C0.261188 35.3143 0.178944 34.9886 0.245105 34.6114L6.0733 1.38857C6.13946 1.01143 6.33599 0.685716 6.66287 0.411429C6.98976 0.137143 7.34485 0 7.72816 0H21.8096C26.7578 0 30.2428 0.891429 32.2647 2.67429C34.3275 4.42286 35.0461 7.08 34.4206 10.6457L34.3935 10.8C34.1349 12.2743 33.4677 13.5943 32.3921 14.76C31.3225 15.8914 30.2199 16.7143 29.0843 17.2286C30.3819 17.7771 31.3778 18.7543 32.072 20.16C32.8071 21.5314 33.0303 23.04 32.7416 24.6857C31.4184 32.2286 25.8435 36 16.0169 36Z" fill="white"/>
<path fill-rule="evenodd" clip-rule="evenodd" d="M11 36H16.8685C26.6951 36 32.27 32.2286 33.5932 24.6857C33.8819 23.04 33.6587 21.5314 32.9236 20.16C32.2293 18.7543 31.2334 17.7771 29.9358 17.2286C31.0714 16.7143 32.174 15.8914 33.2437 14.76C34.3193 13.5943 34.9865 12.2743 35.2451 10.8L35.2721 10.6457C35.8977 7.08 35.179 4.42286 33.1163 2.67429C31.0943 0.891429 27.6093 0 22.6612 0H16.7927C21.7408 0 25.2259 0.891429 27.2478 2.67429C29.3106 4.42286 30.0292 7.08 29.4037 10.6457L29.3766 10.8C29.118 12.2743 28.4508 13.5943 27.3752 14.76C26.3055 15.8914 25.2029 16.7143 24.0673 17.2286C25.3649 17.7771 26.3609 18.7543 27.0551 20.16C27.7902 21.5314 28.0134 23.04 27.7247 24.6857C26.4015 32.2286 20.8266 36 11 36Z" fill="#00CFD9"/>
<path d="M18.2747 35.8158H12.8643L13.3837 32.8545H0.519284L1.28063 28.5146L14.8822 16.9377H21.5864L18.2747 35.8158ZM15.3671 21.5485L7.19092 28.5146H14.1451L15.3671 21.5485Z" fill="#00CFD9"/>
</svg>
