<svg width="25" height="24" viewBox="0 0 25 24" fill="none" xmlns="http://www.w3.org/2000/svg">
<path d="M8.7093 2.7612C9.92255 2.25866 11.2229 2 12.5361 2C18.0361 2 22.5361 6.47 22.5361 12C22.5361 14.6522 21.4826 17.1957 19.6072 19.0711C17.7318 20.9464 15.1883 22 12.5361 22C11.2229 22 9.92255 21.7413 8.7093 21.2388C7.49604 20.7362 6.39365 19.9997 5.46506 19.0711C3.5897 17.1957 2.53613 14.6522 2.53613 12C2.53613 9.34783 3.5897 6.8043 5.46506 4.92893C6.39365 4.00035 7.49604 3.26375 8.7093 2.7612Z" fill="black"/>
<path d="M12.1799 19H6.0948C5.93509 19 5.80718 18.9429 5.71108 18.8286C5.61497 18.7143 5.5807 18.5786 5.60827 18.4214L8.03669 4.57857C8.06425 4.42143 8.14614 4.28571 8.28234 4.17143C8.41854 4.05714 8.5665 4 8.72621 4H14.5935C16.6552 4 18.1073 4.37143 18.9498 5.11429C19.8093 5.84286 20.1087 6.95 19.8481 8.43571L19.8368 8.5C19.729 9.11429 19.451 9.66429 19.0029 10.15C18.5572 10.6214 18.0977 10.9643 17.6246 11.1786C18.1653 11.4071 18.5802 11.8143 18.8695 12.4C19.1758 12.9714 19.2688 13.6 19.1485 14.2857C18.5971 17.4286 16.2743 19 12.1799 19Z" fill="white"/>
<path fill-rule="evenodd" clip-rule="evenodd" d="M10.0889 19H12.5352C16.6296 19 18.9524 17.4286 19.5038 14.2857C19.6241 13.6 19.5311 12.9714 19.2248 12.4C18.9355 11.8143 18.5205 11.4071 17.9799 11.1786C18.453 10.9643 18.9125 10.6214 19.3581 10.15C19.8063 9.66429 20.0843 9.11429 20.1921 8.5L20.2033 8.43571C20.464 6.95 20.1646 5.84286 19.3051 5.11429C18.4626 4.37143 17.0105 4 14.9488 4H12.5025C14.5642 4 16.0163 4.37143 16.8588 5.11429C17.7183 5.84286 18.0177 6.95 17.7571 8.43571L17.7458 8.5C17.638 9.11429 17.36 9.66429 16.9119 10.15C16.4662 10.6214 16.0068 10.9643 15.5336 11.1786C16.0743 11.4071 16.4892 11.8143 16.7785 12.4C17.0848 12.9714 17.1778 13.6 17.0575 14.2857C16.5061 17.4286 14.1833 19 10.0889 19Z" fill="#00CFD9"/>
<path d="M13.1204 18.9232H10.866L11.0825 17.6894H5.72231L6.03954 15.8811L11.7068 11.0574H14.5003L13.1204 18.9232ZM11.9089 12.9785L8.50216 15.8811H11.3997L11.9089 12.9785Z" fill="#00CFD9"/>
</svg>
