<svg width="28" height="28" viewBox="0 0 28 28" fill="none" xmlns="http://www.w3.org/2000/svg">
<path d="M26.2495 3.99438H1.74951C1.61201 3.99438 1.49951 4.10688 1.49951 4.24438V6.24439C1.49951 6.38189 1.61201 6.49439 1.74951 6.49439H26.2495C26.387 6.49439 26.4995 6.38189 26.4995 6.24439V4.24438C26.4995 4.10688 26.387 3.99438 26.2495 3.99438ZM26.2495 21.4944H1.74951C1.61201 21.4944 1.49951 21.6069 1.49951 21.7444V23.7444C1.49951 23.8819 1.61201 23.9944 1.74951 23.9944H26.2495C26.387 23.9944 26.4995 23.8819 26.4995 23.7444V21.7444C26.4995 21.6069 26.387 21.4944 26.2495 21.4944ZM26.2495 12.7444H1.74951C1.61201 12.7444 1.49951 12.8569 1.49951 12.9944V14.9944C1.49951 15.1319 1.61201 15.2444 1.74951 15.2444H26.2495C26.387 15.2444 26.4995 15.1319 26.4995 14.9944V12.9944C26.4995 12.8569 26.387 12.7444 26.2495 12.7444Z" fill="white"/>
</svg>
