<svg width="24" height="24" viewBox="0 0 24 24" fill="none" xmlns="http://www.w3.org/2000/svg">
<path d="M12 22C17.5417 22 22 17.5417 22 12C22 6.4583 17.5417 2 12 2C6.4583 2 2 6.4583 2 12C2 17.5417 6.4583 22 12 22Z" fill="#2775CA"/>
<path d="M14.7498 13.584C14.7498 12.1257 13.8748 11.6257 12.1248 11.4174C10.8748 11.2507 10.6248 10.9174 10.6248 10.334C10.6248 9.75059 11.0415 9.37569 11.8748 9.37569C12.6248 9.37569 13.0415 9.62569 13.2498 10.2507C13.2915 10.3757 13.4165 10.459 13.5415 10.459H14.2081C14.3748 10.459 14.4998 10.334 14.4998 10.1674V10.1257C14.3331 9.20899 13.5831 8.50069 12.6248 8.41739V7.41739C12.6248 7.25068 12.4998 7.12568 12.2915 7.08398H11.6665C11.4998 7.08398 11.3748 7.20898 11.3331 7.41739V8.37569C10.0831 8.54239 9.2915 9.37569 9.2915 10.4174C9.2915 11.7924 10.1248 12.334 11.8748 12.5424C13.0415 12.7507 13.4165 13.0007 13.4165 13.6674C13.4165 14.3341 12.8331 14.7924 12.0415 14.7924C10.9581 14.7924 10.5831 14.334 10.4581 13.709C10.4165 13.5424 10.2915 13.459 10.1665 13.459H9.4581C9.2915 13.459 9.1665 13.584 9.1665 13.7507V13.7924C9.3331 14.834 9.9998 15.584 11.3748 15.7924V16.7924C11.3748 16.959 11.4998 17.084 11.7081 17.1257H12.3331C12.4998 17.1257 12.6248 17.0007 12.6665 16.7924V15.7924C13.9165 15.584 14.7498 14.709 14.7498 13.584Z" fill="white"/>
<path d="M9.87485 17.9576C6.62484 16.791 4.95814 13.166 6.16654 9.95762C6.79154 8.20762 8.16655 6.87432 9.87485 6.24932C10.0416 6.16602 10.1249 6.04102 10.1249 5.83262V5.24932C10.1249 5.08262 10.0416 4.95762 9.87485 4.91602C9.83315 4.91602 9.74985 4.91602 9.70815 4.95762C5.74984 6.20762 3.58313 10.416 4.83314 14.3743C5.58314 16.7076 7.37484 18.4993 9.70815 19.2493C9.87485 19.3326 10.0416 19.2493 10.0832 19.0826C10.1249 19.041 10.1249 18.9993 10.1249 18.916V18.3326C10.1249 18.2076 9.99985 18.041 9.87485 17.9576ZM14.2916 4.95762C14.1249 4.87432 13.9582 4.95762 13.9166 5.12432C13.8749 5.16602 13.8749 5.20762 13.8749 5.29102V5.87432C13.8749 6.04102 13.9999 6.20762 14.1249 6.29102C17.3749 7.45762 19.0416 11.0826 17.8332 14.291C17.2082 16.041 15.8332 17.3743 14.1249 17.9993C13.9582 18.0826 13.8749 18.2076 13.8749 18.416V18.9993C13.8749 19.166 13.9582 19.291 14.1249 19.3326C14.1666 19.3326 14.2499 19.3326 14.2916 19.291C18.2499 18.041 20.4166 13.8326 19.1666 9.87432C18.4166 7.49932 16.5832 5.70762 14.2916 4.95762Z" fill="white"/>
</svg>
