<svg width="25" height="24" viewBox="0 0 25 24" fill="none" xmlns="http://www.w3.org/2000/svg">
<path d="M17.0366 7.99997L17.0366 4.56873C17.0366 4.30351 16.9312 4.04916 16.7437 3.86162C16.5561 3.67408 16.0366 3.56873 16.0366 3.56873C16.0366 3.56873 6.80703 5.24599 6.03655 5.37952C4.03655 5.72614 4.03655 6.49997 4.03655 6.49997M4.03655 6.49997C3.912 7.68338 5.07544 7.99997 6.03655 7.99997H18.0366C18.3018 7.99997 18.5561 8.10532 18.7437 8.29286C18.9312 8.4804 19.0366 8.73475 19.0366 8.99997V12M4.03655 6.49997C4.03655 10.2331 4.03655 13.951 4.03655 18C4.03655 18.5304 4.24727 19.0391 4.62234 19.4142C4.99741 19.7893 5.50612 20 6.03655 20H18.0366C18.3018 20 18.5561 19.8946 18.7437 19.7071C18.9312 19.5195 19.0366 19.2652 19.0366 19V16" stroke="white" stroke-width="2" stroke-linecap="round" stroke-linejoin="round"/>
<path d="M20.0361 12V16H16.0361C15.5057 16 14.997 15.7893 14.6219 15.4142C14.2468 15.0391 14.0361 14.5304 14.0361 14C14.0361 13.4696 14.2468 12.9609 14.6219 12.5858C14.997 12.2107 15.5057 12 16.0361 12H20.0361Z" stroke="white" stroke-width="2" stroke-linecap="round" stroke-linejoin="round"/>
</svg>
