{
  "sourceRoot": "apps/b4b-hedera-hack-ui-e2e/src",
  "projectType": "application",
  "targets": {
    "e2e": {
      "executor": "@nrwl/cypress:cypress",
      "options": {
        "cypressConfig": "apps/b4b-hedera-hack-ui-e2e/cypress.json",
        "devServerTarget": "b4b-hedera-hack-ui:serve:development"
      },
      "configurations": {
        "production": {
          "devServerTarget": "b4b-hedera-hack-ui:serve:production"
        }
      }
    },
    "lint": {
      "executor": "@nrwl/linter:eslint",
      "outputs": ["{options.outputFile}"],
      "options": {
        "lintFilePatterns": ["apps/b4b-hedera-hack-ui-e2e/**/*.{js,ts}"]
      }
    }
  },
  "tags": [],
  "implicitDependencies": ["b4b-hedera-hack-ui"]
}
